<svg width="49" height="19" viewBox="0 0 49 19" fill="none" xmlns="http://www.w3.org/2000/svg">
<rect width="49" height="19" rx="2" fill="#F7931A"/>
<path d="M12.852 4.432H14.436L18.348 10.744H18.372V4.432H19.8V13H18.216L14.316 6.7H14.28V13H12.852V4.432ZM25.6402 9.352C25.6242 9.136 25.5762 8.928 25.4962 8.728C25.4242 8.528 25.3202 8.356 25.1842 8.212C25.0562 8.06 24.8962 7.94 24.7042 7.852C24.5202 7.756 24.3122 7.708 24.0802 7.708C23.8402 7.708 23.6202 7.752 23.4202 7.84C23.2282 7.92 23.0602 8.036 22.9162 8.188C22.7802 8.332 22.6682 8.504 22.5802 8.704C22.5002 8.904 22.4562 9.12 22.4482 9.352H25.6402ZM22.4482 10.252C22.4482 10.492 22.4802 10.724 22.5442 10.948C22.6162 11.172 22.7202 11.368 22.8562 11.536C22.9922 11.704 23.1642 11.84 23.3722 11.944C23.5802 12.04 23.8282 12.088 24.1162 12.088C24.5162 12.088 24.8362 12.004 25.0762 11.836C25.3242 11.66 25.5082 11.4 25.6282 11.056H26.9242C26.8522 11.392 26.7282 11.692 26.5522 11.956C26.3762 12.22 26.1642 12.444 25.9162 12.628C25.6682 12.804 25.3882 12.936 25.0762 13.024C24.7722 13.12 24.4522 13.168 24.1162 13.168C23.6282 13.168 23.1962 13.088 22.8202 12.928C22.4442 12.768 22.1242 12.544 21.8602 12.256C21.6042 11.968 21.4082 11.624 21.2722 11.224C21.1442 10.824 21.0802 10.384 21.0802 9.904C21.0802 9.464 21.1482 9.048 21.2842 8.656C21.4282 8.256 21.6282 7.908 21.8842 7.612C22.1482 7.308 22.4642 7.068 22.8322 6.892C23.2002 6.716 23.6162 6.628 24.0802 6.628C24.5682 6.628 25.0042 6.732 25.3882 6.94C25.7802 7.14 26.1042 7.408 26.3602 7.744C26.6162 8.08 26.8002 8.468 26.9122 8.908C27.0322 9.34 27.0642 9.788 27.0082 10.252H22.4482ZM27.4841 6.796H28.9361L30.1481 11.428H30.1721L31.3361 6.796H32.7161L33.8321 11.428H33.8561L35.1161 6.796H36.5081L34.5641 13H33.1601L32.0081 8.392H31.9841L30.8441 13H29.4041L27.4841 6.796Z" fill="white"/>
</svg>
